< 0xf0
< 0x07
< 0x01
< 0x01
< 0x9f
< 0x01
< 0x99
> 	0x50 (P)
> 	0x04
> 	0x20
> 	0x74 (t)
< 0xf1
< 0x07
< 0x01
< 0x01
< 0x9f
< 0x22 (")
< 0xbb
> 	0x50 (P)
> 	0x03
> 	0x53 (S)
< 0xf0
< 0x07
< 0x01
< 0x01
< 0x9d
< 0x01
< 0x97
> 	0x50 (P)
> 	0x04
> 	0x0f
> 	0x63 (c)
< 0xf1
< 0x07
< 0x01
< 0x01
< 0x9d
< 0x0f
< 0xa6
> 	0x50 (P)
> 	0x03
> 	0x53 (S)
