< 0xf1
< 0x08
< 0x01
< 0xf0
< 0x01
< 0x01
< 0x02
< 0xee
> 	0x50 (P)
> 	0x03
> 	0x53 (S)
< 0xf0
< 0x07
< 0x01
< 0x01
< 0x9f
< 0x01
< 0x99
> 	0x50 (P)
> 	0x04
> 	0x20
> 	0x74 (t)
< 0xf1
< 0x07
< 0x01
< 0x01
< 0x9f
< 0x20
< 0xb9
> 	0x50 (P)
> 	0x03
> 	0x53 (S)
