< 0xf0
< 0x07
< 0x02
< 0xe1
< 0x05
< 0x01
< 0xe0
> 	0x50 (P)
> 	0x05
> 	0x00
> 	0x03
> 	0x58 (X)
< 0xf0
< 0x07
< 0x02
< 0xe1
< 0x02
< 0x01
< 0xdd
> 	0x50 (P)
> 	0x05
> 	0x01
> 	0xe3
> 	0x39 (9)
< 0xf0
< 0x07
< 0x02
< 0xe1
< 0x04
< 0x01
< 0xdf
> 	0x50 (P)
> 	0x05
> 	0x17
> 	0x6e (n)
> 	0xda
< 0xf0
< 0x07
< 0x02
< 0xe1
< 0x07
< 0x01
< 0xe2
> 	0x50 (P)
> 	0x05
> 	0x00
> 	0x04
> 	0x59 (Y)
< 0xf1
< 0x07
< 0x01
< 0x01
< 0x9d
< 0x0f
< 0xa6
> 	0x50 (P)
> 	0x03
> 	0x53 (S)
< 0xf1
< 0x07
< 0x01
< 0x04
< 0x01
< 0x00
< 0xfe
> 	0x50 (P)
> 	0x03
> 	0x53 (S)
< 0xf1
< 0x07
< 0x01
< 0x04
< 0x02
< 0x00
< 0xff
> 	0x50 (P)
> 	0x03
> 	0x53 (S)
< 0xf1
< 0x07
< 0x01
< 0x04
< 0x03
< 0x00
< 0x00
> 	0x50 (P)
> 	0x03
> 	0x53 (S)
< 0xf1
< 0x07
< 0x01
< 0x04
< 0x04
< 0x00
< 0x01
> 	0x50 (P)
> 	0x03
> 	0x53 (S)
< 0xf1
< 0x07
< 0x01
< 0x04
< 0x05
< 0x00
< 0x02
> 	0x50 (P)
> 	0x03
> 	0x53 (S)
< 0xf1
< 0x07
< 0x01
< 0x04
< 0x06
< 0x00
< 0x03
> 	0x50 (P)
> 	0x03
> 	0x53 (S)
< 0xf1
< 0x07
< 0x01
< 0x04
< 0x07
< 0x00
< 0x04
> 	0x50 (P)
> 	0x03
> 	0x53 (S)
< 0xf1
< 0x07
< 0x01
< 0x04
< 0x09
< 0x00
< 0x06
> 	0x50 (P)
> 	0x03
> 	0x53 (S)
< 0xf1
< 0x07
< 0x01
< 0x05
< 0x28 (()
< 0xd9
< 0xff
> 	0x50 (P)
> 	0x03
> 	0x53 (S)
< 0xf1
< 0x07
< 0x01
< 0x05
< 0x29 ())
< 0x80
< 0xa7
> 	0x50 (P)
> 	0x03
> 	0x53 (S)
< 0xf1
< 0x07
< 0x01
< 0x01
< 0x9c
< 0x7f
< 0x15
> 	0x50 (P)
> 	0x03
> 	0x53 (S)
< 0xf1
< 0x07
< 0x01
< 0x01
< 0x9e
< 0x0f
< 0xa7
> 	0x50 (P)
> 	0x03
> 	0x53 (S)
< 0xf1
< 0x07
< 0x01
< 0x01
< 0x9f
< 0x22 (")
< 0xbb
> 	0x50 (P)
> 	0x03
> 	0x53 (S)
< 0xf1
< 0x07
< 0x01
< 0x05
< 0x37 (7)
< 0x00
< 0x35 (5)
> 	0x50 (P)
> 	0x03
> 	0x53 (S)
< 0xf1
< 0x07
< 0x01
< 0x05
< 0x38 (8)
< 0x02
< 0x38 (8)
> 	0x50 (P)
> 	0x03
> 	0x53 (S)
< 0xf1
< 0x07
< 0x01
< 0x05
< 0x39 (9)
< 0x01
< 0x38 (8)
> 	0x50 (P)
> 	0x03
> 	0x53 (S)
< 0xf0
< 0x07
< 0x02
< 0xe1
< 0x05
< 0x01
< 0xe0
> 	0x50 (P)
> 	0x05
> 	0x00
> 	0x03
> 	0x58 (X)
< 0xf0
< 0x07
< 0x02
< 0xe1
< 0x02
< 0x01
< 0xdd
> 	0x50 (P)
> 	0x05
> 	0x01
> 	0xe3
> 	0x39 (9)
< 0xf0
< 0x07
< 0x02
< 0xe1
< 0x04
< 0x01
< 0xdf
> 	0x50 (P)
> 	0x05
> 	0x17
> 	0x6e (n)
> 	0xda
< 0xf0
< 0x07
< 0x02
< 0xe1
< 0x07
< 0x01
< 0xe2
> 	0x50 (P)
> 	0x05
> 	0x00
> 	0x04
> 	0x59 (Y)
< 0xf1
< 0x07
< 0x01
< 0xf1
< 0x08
< 0x01
< 0xf3
> 	0x50 (P)
> 	0x03
> 	0x53 (S)
< 0xf0
< 0x07
< 0x02
< 0xe1
< 0x05
< 0x01
< 0xe0
> 	0x50 (P)
> 	0x05
> 	0x00
> 	0x03
> 	0x58 (X)
< 0xf0
< 0x07
< 0x02
< 0xe1
< 0x02
< 0x01
< 0xdd
> 	0x50 (P)
> 	0x05
> 	0x01
> 	0xe3
> 	0x39 (9)
< 0xf0
< 0x07
< 0x02
< 0xe1
< 0x04
< 0x01
< 0xdf
> 	0x50 (P)
> 	0x05
> 	0x17
> 	0x6e (n)
> 	0xda
< 0xf0
< 0x07
< 0x02
< 0xe1
< 0x07
< 0x01
< 0xe2
> 	0x50 (P)
> 	0x05
> 	0x00
> 	0x04
> 	0x59 (Y)
